%YAML 1.1
%TAG !u! tag:unity3d.com,2011:
--- !u!1 &159202
GameObject:
  m_ObjectHideFlags: 0
  m_PrefabParentObject: {fileID: 0}
  m_PrefabInternal: {fileID: 100100000}
  serializedVersion: 4
  m_Component:
  - 4: {fileID: 418612}
  - 114: {fileID: 11474538}
  m_Layer: 0
  m_Name: Audio Manager
  m_TagString: Untagged
  m_Icon: {fileID: 0}
  m_NavMeshLayer: 0
  m_StaticEditorFlags: 0
  m_IsActive: 1
--- !u!4 &418612
Transform:
  m_ObjectHideFlags: 1
  m_PrefabParentObject: {fileID: 0}
  m_PrefabInternal: {fileID: 100100000}
  m_GameObject: {fileID: 159202}
  m_LocalRotation: {x: 0, y: 0, z: 0, w: 1}
  m_LocalPosition: {x: 0, y: 0, z: 0}
  m_LocalScale: {x: 1, y: 1, z: 1}
  m_Children: []
  m_Father: {fileID: 0}
  m_RootOrder: 0
--- !u!114 &11474538
MonoBehaviour:
  m_ObjectHideFlags: 1
  m_PrefabParentObject: {fileID: 0}
  m_PrefabInternal: {fileID: 100100000}
  m_GameObject: {fileID: 159202}
  m_Enabled: 1
  m_EditorHideFlags: 0
  m_Script: {fileID: 11500000, guid: 69641c74f6b3e0e4e9c26100abe34b75, type: 3}
  m_Name: 
  m_EditorClassIdentifier: 
  music: {fileID: 8300000, guid: 90b1f30018c57c343bda0e82ebef24c2, type: 3}
  soundsToLoad:
  - Id: BrickHit
    Clip: {fileID: 8300000, guid: e229beb36e614cc469df400ab888ec48, type: 3}
  - Id: PaddleHit
    Clip: {fileID: 8300000, guid: 7e1b29a21440c994b867f216fb25aeed, type: 3}
  - Id: PowerBad
    Clip: {fileID: 8300000, guid: aa927b43f8a48cd49a53818a6f075406, type: 3}
  - Id: PowerGood
    Clip: {fileID: 8300000, guid: 443e0d72505141d4d988d24c94a6c151, type: 3}
  - Id: Lightning
    Clip: {fileID: 8300000, guid: d1db8060ea3b95844804ec6bda13cbce, type: 3}
  - Id: LostBall
    Clip: {fileID: 8300000, guid: 612b72bb8db318c4d864449f2dc82605, type: 3}
--- !u!1001 &100100000
Prefab:
  m_ObjectHideFlags: 1
  serializedVersion: 2
  m_Modification:
    m_TransformParent: {fileID: 0}
    m_Modifications: []
    m_RemovedComponents: []
  m_ParentPrefab: {fileID: 0}
  m_RootGameObject: {fileID: 159202}
  m_IsPrefabParent: 1
